%% LaTeX2e file `cf_precision.data'
%% generated by the `filecontents' environment
%% from source `main' on 2016/07/06.
%%
# Support Indexes [\%]
.04 11.47
.05 14.08
.06 19.38
.07 25.30
.08 23.86
.09 29.40



