\relax 
\providecommand\hyper@newdestlabel[2]{}
\bibcite{Author1990}{\hyperlink {beamerbibAuthor1990}{1}}
\bibcite{Someone2000}{\hyperlink {beamerbibSomeone2000}{2}}
\@writefile{nav}{\headcommand {\partentry {\translate  {Appendix}}{1}}}
\@writefile{nav}{\headcommand {\beamer@partpages {1}{33}}}
\@writefile{nav}{\headcommand {\beamer@sectionpages {31}{33}}}
\@writefile{nav}{\headcommand {\beamer@subsectionpages {32}{33}}}
\@writefile{nav}{\headcommand {\beamer@appendixpages {34}}}
\@writefile{nav}{\headcommand {\sectionentry {6}{\translate  {Appendix}}{34}{\translate  {Appendix}}{1}}}
\@writefile{nav}{\headcommand {\beamer@sectionpages {34}{33}}}
\@writefile{nav}{\headcommand {\beamer@subsectionpages {34}{33}}}
\@writefile{nav}{\headcommand {\beamer@subsectionentry {1}{6}{1}{34}{For Further Reading}}\headcommand {\beamer@subsectionpages {34}{33}}}
\@writefile{nav}{\headcommand {\slideentry {6}{1}{1}{34/34}{For Further Reading}{1}}}
\@writefile{nav}{\headcommand {\beamer@framepages {34}{34}}}
\@setckpt{Sections/Appendix}{
\setcounter{page}{35}
\setcounter{equation}{0}
\setcounter{enumi}{0}
\setcounter{enumii}{0}
\setcounter{enumiii}{0}
\setcounter{enumiv}{2}
\setcounter{footnote}{0}
\setcounter{mpfootnote}{0}
\setcounter{beamerpauses}{1}
\setcounter{bookmark@seq@number}{17}
\setcounter{lecture}{0}
\setcounter{part}{1}
\setcounter{section}{6}
\setcounter{subsection}{1}
\setcounter{subsubsection}{0}
\setcounter{subsectionslide}{1}
\setcounter{framenumber}{34}
\setcounter{figure}{0}
\setcounter{table}{0}
\setcounter{parentequation}{0}
\setcounter{theorem}{0}
\setcounter{section@level}{0}
}
