\relax 
\providecommand\hyper@newdestlabel[2]{}
\@writefile{toc}{\beamer@sectionintoc {4}{Results}{25}{0}{4}}
\@writefile{nav}{\headcommand {\sectionentry {4}{Results}{25}{Results}{0}}}
\@writefile{nav}{\headcommand {\beamer@sectionpages {15}{24}}}
\@writefile{nav}{\headcommand {\beamer@subsectionpages {17}{24}}}
\@writefile{nav}{\headcommand {\slideentry {4}{0}{9}{25/25}{}{0}}}
\@writefile{nav}{\headcommand {\beamer@framepages {25}{25}}}
\@writefile{toc}{\beamer@subsectionintoc {4}{1}{Dataset}{26}{0}{4}}
\@writefile{nav}{\headcommand {\beamer@subsectionentry {0}{4}{1}{26}{Dataset}}\headcommand {\beamer@subsectionpages {25}{25}}}
\@writefile{nav}{\headcommand {\slideentry {4}{1}{1}{26/26}{Dataset}{0}}}
\@writefile{nav}{\headcommand {\beamer@framepages {26}{26}}}
\@writefile{toc}{\beamer@subsectionintoc {4}{2}{Evaluation}{27}{0}{4}}
\@writefile{nav}{\headcommand {\beamer@subsectionentry {0}{4}{2}{27}{Evaluation}}\headcommand {\beamer@subsectionpages {26}{26}}}
\@writefile{nav}{\headcommand {\slideentry {4}{2}{1}{27/27}{Evaluation}{0}}}
\@writefile{nav}{\headcommand {\beamer@framepages {27}{27}}}
\@writefile{nav}{\headcommand {\slideentry {4}{2}{2}{28/28}{Evaluation}{0}}}
\@writefile{nav}{\headcommand {\beamer@framepages {28}{28}}}
\@writefile{nav}{\headcommand {\slideentry {4}{2}{3}{29/29}{Evaluation}{0}}}
\@writefile{nav}{\headcommand {\beamer@framepages {29}{29}}}
\@writefile{nav}{\headcommand {\slideentry {4}{2}{4}{30/30}{Evaluation}{0}}}
\@writefile{nav}{\headcommand {\beamer@framepages {30}{30}}}
\@setckpt{Sections/Results}{
\setcounter{page}{31}
\setcounter{equation}{0}
\setcounter{enumi}{0}
\setcounter{enumii}{0}
\setcounter{enumiii}{0}
\setcounter{enumiv}{0}
\setcounter{footnote}{0}
\setcounter{mpfootnote}{0}
\setcounter{beamerpauses}{1}
\setcounter{bookmark@seq@number}{14}
\setcounter{lecture}{0}
\setcounter{part}{0}
\setcounter{section}{4}
\setcounter{subsection}{2}
\setcounter{subsubsection}{0}
\setcounter{subsectionslide}{4}
\setcounter{framenumber}{30}
\setcounter{figure}{0}
\setcounter{table}{0}
\setcounter{parentequation}{0}
\setcounter{theorem}{0}
\setcounter{section@level}{0}
}
