\boolfalse {citerequest}\boolfalse {citetracker}\boolfalse {pagetracker}\boolfalse {backtracker}\relax 
\defcounter {refsection}{0}\relax 
\select@language {english}
\defcounter {refsection}{0}\relax 
\addvspace {10\p@ }
\defcounter {refsection}{0}\relax 
\addvspace {10\p@ }
\defcounter {refsection}{0}\relax 
\addvspace {10\p@ }
\defcounter {refsection}{0}\relax 
\addvspace {10\p@ }
\defcounter {refsection}{0}\relax 
\contentsline {table}{\numberline {4.1}{\ignorespaces Rules number\relax }}{44}{table.caption.77}
\defcounter {refsection}{0}\relax 
\contentsline {table}{\numberline {4.2}{\ignorespaces Precision and Recall values\relax }}{44}{table.caption.78}
\defcounter {refsection}{0}\relax 
\contentsline {table}{\numberline {4.3}{\ignorespaces Performance comparison\relax }}{45}{table.caption.80}
\defcounter {refsection}{0}\relax 
\addvspace {10\p@ }
