\relax 
\providecommand\hyper@newdestlabel[2]{}
\providecommand\HyperFirstAtBeginDocument{\AtBeginDocument}
\HyperFirstAtBeginDocument{\ifx\hyper@anchor\@undefined
\global\let\oldcontentsline\contentsline
\gdef\contentsline#1#2#3#4{\oldcontentsline{#1}{#2}{#3}}
\global\let\oldnewlabel\newlabel
\gdef\newlabel#1#2{\newlabelxx{#1}#2}
\gdef\newlabelxx#1#2#3#4#5#6{\oldnewlabel{#1}{{#2}{#3}}}
\AtEndDocument{\ifx\hyper@anchor\@undefined
\let\contentsline\oldcontentsline
\let\newlabel\oldnewlabel
\fi}
\fi}
\global\let\hyper@last\relax 
\gdef\HyperFirstAtBeginDocument#1{#1}
\providecommand\HyField@AuxAddToFields[1]{}
\providecommand\HyField@AuxAddToCoFields[2]{}
\bibstyle{biblatex}
\bibdata{main-blx,example}
\citation{biblatex-control}
\@writefile{toc}{\boolfalse {citerequest}\boolfalse {citetracker}\boolfalse {pagetracker}\boolfalse {backtracker}\relax }
\@writefile{lof}{\boolfalse {citerequest}\boolfalse {citetracker}\boolfalse {pagetracker}\boolfalse {backtracker}\relax }
\@writefile{lot}{\boolfalse {citerequest}\boolfalse {citetracker}\boolfalse {pagetracker}\boolfalse {backtracker}\relax }
\select@language{english}
\@writefile{toc}{\defcounter {refsection}{0}\relax }\@writefile{toc}{\select@language{english}}
\@writefile{lof}{\defcounter {refsection}{0}\relax }\@writefile{lof}{\select@language{english}}
\@writefile{lot}{\defcounter {refsection}{0}\relax }\@writefile{lot}{\select@language{english}}
\@writefile{loa}{\defcounter {refsection}{0}\relax }\@writefile{loa}{\select@language{english}}
\@writefile{toc}{\defcounter {refsection}{0}\relax }\@writefile{toc}{\contentsline {chapter}{Abstract}{ii}{section*.1}}
\@writefile{toc}{\defcounter {refsection}{0}\relax }\@writefile{toc}{\contentsline {chapter}{Acknowledgements}{iii}{section*.2}}
\gdef \LT@i {\LT@entry 
    {1}{34.50215pt}\LT@entry 
    {1}{152.2131pt}}
\@input{Chapters/Chapter1.aux}
\citation{RSsota}
\citation{hb}
\citation{netflix}
\citation{amazon}
\citation{microsoft}
\citation{evalms}
\citation{netflixrs}
\citation{netflixrs}
\citation{bagmovies}
\@input{Chapters/Chapter2.aux}
\citation{hb}
\citation{hb}
\citation{evalcf}
\citation{pci}
\citation{hb}
\citation{movielens}
\citation{far}
\citation{vsm}
\citation{roc}
\citation{rs}
\citation{pci}
\citation{cf}
\citation{sota}
\citation{pci}
\citation{grouplens}
\citation{sota}
\citation{mar}
\citation{ar}
\citation{largear}
\citation{hybrid}
\citation{hybrid}
\citation{eval}
\citation{hb}
\citation{eval}
\citation{eval}
\citation{issues}
\citation{ad}
\citation{div2}
\citation{netflixrs}
\citation{div}
\citation{google}
\citation{pci}
\citation{googlepr}
\citation{ytrs}
\citation{ytrs2}
\citation{ytrs2}
\citation{amazon}
\citation{amazoncf}
\citation{netflix}
\citation{netflixrs}
\citation{netflixrs}
\@input{Chapters/Chapter3.aux}
\citation{bagmovies}
\citation{apcode}
\citation{div}
\citation{pda}
\@input{Chapters/Chapter4.aux}
\citation{sqlite}
\citation{imdb}
\citation{imdbstats}
\citation{omdb}
\citation{omdb}
\citation{evalms}
\@input{Chapters/Chapter5.aux}
\citation{cfrs}
\citation{grouplens}
\citation{movielens}
\@writefile{toc}{\defcounter {refsection}{0}\relax }\@writefile{toc}{\contentsline {chapter}{Bibliography}{49}{appendix*.87}}
